Causal simulation – applied econometrics blogs
…
copula parameters:
cop ~ 1
             est.  s.e. sandwich
(intercept) 0.998 0.069   0.0734

Plasmode simulation

In reality, we have a data set and we have a causal model. We want to simulate data from the causal model, but we want the simulated data to have the same distribution as the original data. This is called “plasmode simulation”. For example, we don’t want to use the real outcome variable. In stead, we simulate X’s from the original data, Then simulate Y and A from the causal model. We can then test which method works better in estimating the causal effect of \(A\) on \(Y\).

# A tibble: 4,802 × 58
     x_1 x_2     x_3   x_4   x_5   x_6   x_7   x_8   x_9  x_10  x_11  x_12  x_13
   <int> <fct> <dbl> <dbl> <int> <int> <int> <int> <int> <int> <int> <int> <int>
 1    29 C         1     7    60    85     0     0     1     0     0     1     0
 2    27 C         0     0    64   178     0     0     0     0     0     2     1
 3    27 C         0     0    60   102     0     0     0     0     0     1     0
 4    37 C         0     0    65   174     0     0     0     0     0     1     0
 5    24 C        20    14    63   129     0     0     0     0     0     1     0
 6    27 C        40    15    63   135     0     0     0     0     0     1     1
 7    26 C        20     8    69   140     0     0     0     1     0     0     0
 8    33 C         0     0    60   110     0     0     0     1     0     0     1
 9    28 C         3     5    61   160     0     0     0     0     0     3     1
10    31 C         0     0    63   114     0     1     0     0     0     0     0
# ℹ 4,792 more rows
# ℹ 45 more variables: x_14 <int>, x_15 <int>, x_16 <int>, x_17 <int>,
#   x_18 <int>, x_19 <int>, x_20 <int>, x_21 <fct>, x_22 <int>, x_23 <int>,
#   x_24 <fct>, x_25 <int>, x_26 <int>, x_27 <int>, x_28 <int>, x_29 <int>,
#   x_30 <int>, x_31 <int>, x_32 <int>, x_33 <int>, x_34 <int>, x_35 <int>,
#   x_36 <int>, x_37 <int>, x_38 <int>, x_39 <int>, x_40 <int>, x_41 <int>,
#   x_42 <int>, x_43 <int>, x_44 <int>, x_45 <int>, x_46 <int>, x_47 <int>, …
…
