Using numpyro – applied econometrics blogs
…
In medical applications, it is useful to evaluate a model’s confidence in its decisions. Accordingly, the metric used to rank the teams was designed to reflect both the accuracy and certainty of each prediction.”

I read it in R first.

library(tidyverse)
# read in csv file
library(readr)

data <- read_csv("./osic_pulmonary_fibrosis.csv") |> 
  arrange(Patient, Weeks)

data

# A tibble: 1,549 × 7
   Patient                   Weeks   FVC Percent   Age Sex   SmokingStatus
   <chr>                     <dbl> <dbl>   <dbl> <dbl> <chr> <chr>        
 1 ID00007637202177411956430    -4  2315    58.3    79 Male  Ex-smoker    
 2 ID00007637202177411956430     5  2214    55.7    79 Male  Ex-smoker    
 3 ID00007637202177411956430     7  2061    51.9    79 Male  Ex-smoker    
 4 ID00007637202177411956430     9  2144    54.0    79 Male  Ex-smoker    
 5 ID00007637202177411956430    11  2069    52.1    79 Male  Ex-smoker    
 6 ID00007637202177411956430    17  2101    52.9    79 Male  Ex-smoker    
 7 ID00007637202177411956430    29  2000    50.3    79 Male  Ex-smoker    
 8 ID00007637202177411956430    41  2064    51.9    79 Male  Ex-smoker    
 9 ID00007637202177411956430    57  2057    51.8    79 Male  Ex-smoker    
10 ID00009637202177434476278     8  3660    85.3    69 Male  Ex-smoker    
# ℹ 1,539 more rows
…
